CSE 511,Operating Systems Design
CSE 513,Distributed Systems
CSE 514,Computer Networks
CSE 515,Reliable Data Communications
CSE 516,Mobile Networking
CSE 517,Performance Evaluation
CSE 520,Science of Computer Programming
CSE 521,Compiler Construction
CSE 530,Fundamentals of Computer Architecture
CSE 531,Parallel Processors and Processing
CSE 532,Multiprocessor Architecture
CSE 536,Fault Tolerant Systems
CSE 537,Interconnection Networks in Highly Parallel Computers
CSE 539,Topics in Computer Architecture
CSE 541,Database Systems I
CSE 543,Computer Security
CSE 544,System Security
CSE 545,Network Security
CSE 546,Cryptography
CSE 550,Numerical Linear Algebra
CSE 551,Numerical Solution of Ordinary Differential Equations
CSE 552,Numerical Solution of Partial Differential Equations
CSE 553,Introduction to Approximation Theory
CSE 554,Error Correcting Codes for Computers and Communication
CSE 555,Numerical Optimization Techniques
CSE 556,Finite Element Methods
CSE 557,Concurrent Matrix Computation
CSE 560,Theory of Graphs and Networks
CSE 561,Data Mining Driven Design
CSE 562,Probabilistic Algorithms
CSE 564,Complexity of Combinatorial Problems
CSE 565,Algorithm Design and Analysis
CSE 566,Algorithms and Data Structures in Bioinformatics
CSE 575,Architecture of Arithmetic Processors
CSE 577,VLSI Systems Design
CSE 578,VLSI Computer-Aided Design Tools
CSE 579,Topics in Computer Hardware Design
CSE 583,Pattern Recognition--Principles and Applications
CSE 584,Machine Learning: Tools and Algorithms
CSE 585,Digital Image Processing II
CSE 586,Topics in Computer Vision
CSE 588,Complexity in Computer Algebra
CSE 590,Colloquium
CSE 591,Research Experience in Computer Science and Engineering
CSE 594,Research Topics
CSE 596,Individual Studies
CSE 597,Special Topics
CSE 598,Special Topics
CSE 599,Foreign Studies
CSE 600,Thesis Research
CSE 601,Ph.d. Dissertation Full-Time
CSE 602,Supervised Experience in College Teaching
CSE 610,Thesis Research Off-Campus
CSE 611,Ph.d. Dissertation Part-Time
CSE 820,Software & Hardware Project Management
